name,repository,website,more information,license,category,summary,summary source,description,description source,screenshots,mobile compatibility,framework,backend,service
Index,https://invent.kde.org/kde/index-fm,,https://medium.com/@temisclopeolimac/index-overview-b2ddcb16534f,GNU GPLv3,file manager,"""Maui File manager""",https://invent.kde.org/kde/index-fm,"""Index is a file manager that works on desktops, Android and Plasma Mobile. Index lets you browse your system files and applications and preview your music, text, image and video files and share them with external applications.""",https://invent.kde.org/kde/index-fm,https://medium.com/@temisclopeolimac/index-overview-b2ddcb16534f https://medium.com/nitrux/maui-apps-apk-packages-5c966f185f0c https://medium.com/nitrux/maui-apps-apk-packages-5c966f185f0c https://medium.com/nitrux/maui-plasma-mobile-sprint-2019-c20031700b3b https://medium.com/nitrux/maui-kde-fcdc920138e2,0,"MauiKit, Kirigami",,
VVave,https://invent.kde.org/kde/vvave,https://vvave.kde.org/,https://medium.com/@temisclopeolimac/its-vvave-c3f83da90380,GNU GPLv3,music player,"""VVAVE will handle your whole music collection by retreaving semantic information from the web. """,https://vvave.kde.org/,,,https://medium.com/@temisclopeolimac/its-vvave-c3f83da90380 https://medium.com/nitrux/maui-apps-apk-packages-5c966f185f0c https://medium.com/nitrux/maui-plasma-mobile-sprint-2019-c20031700b3b https://medium.com/nitrux/maui-kde-fcdc920138e2,0,"MauiKit, Kirigami",,
Pix,https://invent.kde.org/kde/maui-pix,,,GNU GPLv3,image viewer,"""Image gallery manager for Nitrux""",https://invent.kde.org/kde/maui-pix,"""Pix is an image gallery manager made for Maui. Pix is a convergent and multiplatform app that works under Android and GNU Linux distros.""",https://invent.kde.org/kde/maui-pix,https://medium.com/nitrux/maui-apps-apk-packages-5c966f185f0c https://medium.com/nitrux/maui-plasma-mobile-sprint-2019-c20031700b3b https://medium.com/nitrux/maui-kde-fcdc920138e2,0,"MauiKit, Kirigami",,
Buho,https://invent.kde.org/kde/buho,,,GNU GPLv3,note taking,"""Maui Note Taking App""",https://invent.kde.org/kde/buho,"""Buho allows you to save links, write quick notes and organize pages as books. Buho works on desktops, Android and Plasma Mobile.""",https://invent.kde.org/kde/buho,https://medium.com/@temisclopeolimac/mauis-monthly-c39bbb2de9d0 https://medium.com/nitrux/maui-apps-apk-packages-5c966f185f0c https://medium.com/nitrux/maui-plasma-mobile-sprint-2019-c20031700b3b https://medium.com/nitrux/maui-kde-fcdc920138e2,0,"MauiKit, Kirigami",,
Station,https://invent.kde.org/kde/maui-station,,,GNU GPLv3,terminal emulator,"""This control is based on QMLTermWidget and currently it only works for GNU Linux. Android support might come later on.""",https://medium.com/@temisclopeolimac/mauis-monthly-c39bbb2de9d0,,,https://medium.com/@temisclopeolimac/mauis-monthly-c39bbb2de9d0 https://medium.com/nitrux/maui-kde-fcdc920138e2 https://medium.com/nitrux/maui-kde-fcdc920138e2,0,"MauiKit, Kirigami",,
Nota,https://invent.kde.org/kde/nota,,,not specified,text editor,"""Nota is a simple and convergent text editor""",https://github.com/mauikit/nota,,,https://medium.com/@temisclopeolimac/mauis-monthly-c39bbb2de9d0 https://medium.com/nitrux/maui-kde-fcdc920138e2,0,"MauiKit, Kirigami",,
Library,https://invent.kde.org/kde/maui-library,,,GNU GPLv3,document and ebook manager,"""Maui Library - Document and EBook Collection Manager""",https://invent.kde.org/kde/maui-library,,,https://medium.com/nitrux/maui-kde-fcdc920138e2 https://medium.com/nitrux/maui-kde-fcdc920138e2,0,"MauiKit, Kirigami",,
Dialer,https://invent.kde.org/kde/maui-dialer,,,GNU GPLv3,dialer,"""Maui Dialer and Contacts Manager""",https://invent.kde.org/kde/maui-dialer,,,https://medium.com/nitrux/maui-kde-fcdc920138e2 https://medium.com/nitrux/maui-kde-fcdc920138e2,0,"MauiKit, Kirigami",,
KAlgebra,https://phabricator.kde.org/source/kalgebra/,,,GNU GPLv2,algebra,"""KAlgebra is an application that can replace your graphing calculator. It has numerical, logical, symbolic, and analysis features that let you calculate mathematical expressions on the console and graphically plot the results in 2D or 3D.""",https://phabricator.kde.org/source/kalgebra/browse/master/mobile/org.kde.kalgebramobile.appdata.xml,,,https://play.google.com/store/apps/details?id=org.kde.kalgebramobile,,Kirigami,,
KDE Minuet,https://anongit.kde.org/minuet.git,,,GNU GPLv2,education,"""A KDE Software for Music Education """,https://cgit.kde.org/minuet.git/tree/,,,http://sandroandrade.org/minuet-0-2-massive-refactoring-and-android-version-available/,,Kirigami,,
KDE Connect,https://anongit.kde.org/kdeconnect-android.git https://anongit.kde.org/kdeconnect-kde.git,,,GNU GPLv2,connectivity,"""KDE Connect is a multi-platform app that allows your devices to communicate (eg: your phone and your computer).""",https://cgit.kde.org/kdeconnect-android.git/about/,,,https://nicolasfella.wordpress.com/2018/06/07/kde-connect-on-plasma-mobile/,,Kirigami,,
KDE Itinerary,https://anongit.kde.org/itinerary.git,https://phabricator.kde.org/project/view/280/,https://www.volkerkrause.eu/2018/08/25/kde-itinerary-overview.html https://www.volkerkrause.eu/2019/01/26/kde-itinerary-december-january-2019.html,GNU LGPLv2.1,,"""Itinerary and boarding pass management application.""",https://cgit.kde.org/itinerary.git/tree/README.md,,,Https://www.volkerkrause.eu/2018/08/25/kde-itinerary-overview.html,,Kirigami,,
Kookbook,https://anongit.kde.org/kookbook.git,,https://pusling.com/blog/?p=499,MIT/X11,recipe management,"""Simple application viewer based on markdown formatted recipes.""",https://cgit.kde.org/kookbook.git/tree/README,,,https://pusling.com/blog/?p=499,,Kirigami,,
Kirigami Gallery,https://anongit.kde.org/kirigami-gallery.git,,,GNU LGPLv2,demo,"""Example application which uses all features from kirigami""",https://cgit.kde.org/kirigami-gallery.git/tree/README.md,,,https://play.google.com/store/apps/details?id=org.kde.kirigamigallery,,Kirigami,,
Kaidan,https://git.kaidan.im/kaidan/kaidan/,,,different (mainly GNU GPL-3+ with OpenSSL exception),chat,"""Kaidan, a simple and user-friendly Jabber/XMPP client for every device and platform.""",https://git.kaidan.im/kaidan/kaidan/,,,https://git.kaidan.im/kaidan/kaidan/,,Kirigami,,XMPP
Marble,https://anongit.kde.org/marble.git,,,GNU LGPLv3,"navigation, geography","""Marble is a Virtual Globe and World Atlas that you can use to learn more about Earth""",https://cgit.kde.org/marble.git/,,,,,QtQuick,,
Calindori,https://invent.kde.org/kde/calindori,,https://phabricator.kde.org/T6942,GNU GPLv3,calendar,"""Calendar for Plasma Mobile""",https://invent.kde.org/dkardarakos/calindori,,,https://phabricator.kde.org/T6942,,Kirigami,,
plasma-camera,https://invent.kde.org/kde/plasma-camera,,https://phabricator.kde.org/T6945,not specified,camera,"""Camera application for Plasma Mobile.""",https://invent.kde.org/kde/plasma-camera/,,,,,Kirigami,,
Subsurface,https://github.com/Subsurface-divelog/subsurface,https://subsurface-divelog.org,,GNU GPLv2,,"""Subsurface can plan and track single- and multi-tank dives""",https://subsurface-divelog.org/,,,https://subsurface-divelog.org/subsurface-mobile-v2-user-manual/,,Kirigami,,
KStars,https://anongit.kde.org/kstars.git,,,GNU GPLv2,scientific,"""Desktop Planetarium """,https://cgit.kde.org/kstars.git/,,,https://play.google.com/store/apps/details?id=org.kde.kstars.lite,,,,
Behaim Globus,https://anongit.kde.org/marble.git,,,GNU LGPLv3,geography,,,,,https://play.google.com/store/apps/details?id=org.kde.marble.behaim,,,,
KTuberling,https://anongit.kde.org/ktuberling.git,,,GNU GPLv2,game,"""KTuberling is a simple constructor game suitable for children and adults alike """,https://anongit.kde.org/ktuberling.git,,,https://play.google.com/store/apps/details?id=org.kde.ktuberling,,,,
Klimbgrades,https://anongit.kde.org/klimbgrades.git,,,GNU LGPL2,,"""Conversion utility for the difficulty rating of rock climbs """,https://cgit.kde.org/klimbgrades.git/tree/,,,https://play.google.com/store/apps/details?id=org.kde.klimbgrades,,Kirigami,,
Kube,https://anongit.kde.org/kube,https://kube-project.com/,,GNU GPLV2+,email,"""Kube is a personal information and collaboration application currently in its early""",https://cgit.kde.org/kube.git/tree/README.md,,,https://kube-project.com/,,QtQuick,,
Peruse,https://anongit.kde.org/peruse.git,http://peruse.kde.org/,,GNU LGPLv2,document reader,"""A comic book viewer based on Frameworks 5, for use on multiple form factors""",https://cgit.kde.org/peruse.git/tree/README.md,,,http://peruse.kde.org/,,Kirigami,,
Discover,https://anongit.kde.org/discover.git,,,GNU GPLv3,software center,Kirigami-based software center,no quotation,,,,,Kirigami,,
MartianRun,https://github.com/wmora/martianrun,,,Apache-2.0,game,"""A 2D running game built with libGDX.""",https://github.com/wmora/martianrun,,,https://play.google.com/store/apps/details?id=com.gamestudio24.cityescape.android&utm_source=global_co&utm_medium=prtnr&utm_content=Mar2515&utm_campaign=PartBadge&pcampaignid=MKT-Other-global-all-co-prtnr-py-PartBadge-Mar2515-1,,libGDX,,
BurgerParty,https://github.com/agateau/burgerparty,http://agateau.com/projects/burgerparty/,,CC BY-Sa,game,"""A time management game for Android where you play a fast-food owner who must put together the burgers ordered by her customers before time runs out. """,https://github.com/agateau/burgerparty,,,agateau.com/projects/burgerparty/,,libGDX,,
SuperTux,https://github.com/SuperTux/supertux,https://www.supertux.org/,,GNU GPLv3,game,"""It features 28+ racetracks, a fresh design and unique driving physics.""",https://github.com/SuperTux/supertux,,,https://www.supertux.org/screenshots.html,,,,
SuperTuxKart,https://supertuxkart.net/Main_Page,https://github.com/supertuxkart/stk-code,,"different (GNU GPLv3, CC-BY, CC BY-SA, Public Domain and others)",game,"""SuperTuxKart is a free kart racing game. It focuses on fun and not on realistic kart physics.""",https://github.com/supertuxkart/stk-code,,,https://play.google.com/store/apps/details?id=org.supertuxkart.stk,,,,
1010! Klooni,https://github.com/LonamiWebs/Klooni1010,https://lonamiwebs.github.io/klooni/,,GNU GPLv3,game,"""libGDX game based on the original 1010!""",https://github.com/LonamiWebs/Klooni1010,,,https://f-droid.org/de/packages/io.github.lonamiwebs.klooni/,,libGDX,,
Apple Flinger,https://gitlab.com/ar-/apple-flinger,,,GNU GPLv3,game,"""Funny single- and multiplayer game for Android - Use a slingshot to shoot with apples. Very challenging and addictive.""",https://gitlab.com/ar-/apple-flinger,,,,,libGDX,,
Rabbit Escape,https://github.com/andybalaam/rabbit-escape,https://artificialworlds.net/rabbit-escape,,GNU GPLv2,game,"""Android and PC game inspired by Lemmings and Pingus""",https://github.com/andybalaam/rabbit-escape,,,artificialworlds.net/rabbit-escape,,libGDX,,
Nheko,https://github.com/Nheko-Reborn/nheko,https://nheko-reborn.github.io/,,GNU GPLv3,chat,"""Desktop client for the Matrix protocol """,https://github.com/mujx/nheko,,,https://github.com/Nheko-Reborn/nheko,,QtQuick,,Matrix
Rocket Guardian,https://gitlab.com/atorresm/rocket-guardian,,,GNU GPLv3,game,"""Rocket Guardian is a android game about a guardian that must protect a city from the falling zombies.""",https://gitlab.com/atorresm/rocket-guardian,,,,,libGDX,,
TV Guide,https://gitlab.com/tabos/tvguide,https://tabos.gitlab.io/project/tvguide/,,GNU GPLv3,tv guide,"""TV Guide for GNOME""",https://gitlab.com/tabos/tvguide,,,https://tabos.gitlab.io/project/tvguide/,,GTK,,
TwoFun,https://gitlab.com/tabos/twofun,https://tabos.gitlab.io/project/twofun/,,GNU GPLv3,game,"""Simple touch based game for two player""",https://tabos.gitlab.io/project/twofun/,,,https://tabos.gitlab.io/project/twofun/,,GTK,,
Banking,https://gitlab.com/tabos/banking,https://tabos.gitlab.io/project/banking/,,GNU GPLv3,banking,"""Banking application for small screens""",https://tabos.gitlab.io/project/banking/,,,https://tabos.gitlab.io/project/banking/,,GTK,aqbanking,
MaxControl,https://gitlab.com/tabos/maxcontrol,https://tabos.gitlab.io/project/maxcontrol/,,not specified,,"""Control software for Max!Cube family devices""",https://tabos.gitlab.io/project/maxcontrol/,,,https://tabos.gitlab.io/project/maxcontrol/,,GTK,,
Treasure,https://source.puri.sm/david.boddie/treasure,,,GNU GPLv3,game,"""An application example, implementing a simple guessing game.""",https://source.puri.sm/david.boddie/treasure,,,,,"GTK, libhandy",,
chatty,https://source.puri.sm/Librem5/chatty,,,GNU GPLv3,chat,"""XMPP and SMS messaging via libpurple and Modemmanager""",https://source.puri.sm/Librem5/chatty,,,,,"GTK, libhandy",libpurple. ModemManager,
Koko,https://anongit.kde.org/koko.git,,,GNU GPLv2,image viewer,"""An Image Gallery application""",https://phabricator.kde.org/project/profile/235/,,,,,Kirigami,,
plasma-settings,https://invent.kde.org/kde/plasma-settings,,https://invent.kde.org/kde/plasma-phone-settings,GNU GPLv2,settings,"""Settings application for Plasma Mobile.""",https://invent.kde.org/kde/plasma-settings,,,,,,,
calls,https://source.puri.sm/Librem5/calls,,,GNU GPLv3+,telephony,"""A phone dialer and call handler.""",https://source.puri.sm/Librem5/calls,,,,,"GTK, libhandy","ModemManager, oFono, Phonesim",
virtboard,https://source.puri.sm/Librem5/virtboard,,,"MIT ""Expat""",virtual keyboard,"""A basic keyboard, blazing the path of modern Wayland keyboards. Sacrificial.""",https://source.puri.sm/Librem5/virtboard,,,,,,,
Clocks,https://source.puri.sm/gusnan/gnome-clocks,,,GNU GPLv2,clock,"""A simple clock application for GNOME""",https://source.puri.sm/gusnan/gnome-clocks,"""It includes world clocks, alarms, a stopwatch and a timer""",https://source.puri.sm/gusnan/gnome-clocks,,,,,
gnome-control-center ,https://source.puri.sm/Librem5/gnome-control-center,,,GNU GPLv2,settings,"""GNOME's main interface to configure various aspects of the desktop. Fork for librem5 specific settings""",https://source.puri.sm/Librem5/gnome-control-center,,,,,,,
gnome-notes ,https://gitlab.gnome.org/GNOME/gnome-notes,,,GNU GPLv3,notes,"""Note editor designed to remain simple to use""",https://gitlab.gnome.org/GNOME/gnome-notes,,,,,,gnome-settings-daemon,
gPodder,https://github.com/gpodder/gpodder-ui-qml,https://invent.kde.org/jbbgameich/gpodder-qml,,not specified,podcast,"""gPodder 4 QML UI Reference Implementation""",https://github.com/gpodder/gpodder-ui-qml,,,https://phabricator.kde.org/T9139,,QtQuick,,
qmlkonsole,https://invent.kde.org/jbbgameich/qmlkonsole,,,not specified,terminal,"""Terminal app for Plasma Mobile""",https://invent.kde.org/jbbgameich/qmlkonsole,,,,,,,
Angelfish Webbrowser,https://invent.kde.org/jbbgameich/plasma-angelfish,,,not specified,browser,"""experimental webbrowser""",https://invent.kde.org/jbbgameich/plasma-angelfish,,,,,,,
Glosbit,https://invent.kde.org/dkardarakos/glosbit,,,GNU GPLv3,translation tool,"""Translation tool powered by glosbe.com .""",https://invent.kde.org/dkardarakos/glosbit,,,,,Kirigami,,glosbe.com
videoplayer,https://invent.kde.org/jbbgameich/videoplayer,,,GNU GPLv2,video player,"""Video Player for Plasma Mobile""",https://invent.kde.org/jbbgameich/videoplayer,,,,,,,
Fraktal,https://gitlab.gnome.org/GNOME/fractal,https://wiki.gnome.org/Apps/Fractal,,GNU GPLv3,chat,"""Matrix group messaging app""",https://gitlab.gnome.org/GNOME/fractal,"""Fractal is a Matrix messaging app for GNOME written in Rust. Its interface is optimized for collaboration in large groups, such as free software projects.""",https://gitlab.gnome.org/GNOME/fractal,https://wiki.gnome.org/Apps/Fractal,,"GTK, libhandy",,Matrix
Gnome Web (Epiphany),https://gitlab.gnome.org/GNOME/epiphany,https://wiki.gnome.org/Apps/Web,https://puri.sm/posts/end-of-year-librem-5-update,GNU GPLv3,browser,"""A simple, clean, beautiful view of the Web""",https://gitlab.gnome.org/GNOME/epiphany,"""GNOME Web (codename: Epiphany) is a GNOME web browser based on the WebKit rendering engine. The codename means ""a usually sudden manifestation or perception of the essential nature or meaning of something"" (Merriam-Webster).""",https://gitlab.gnome.org/GNOME/epiphany,https://wiki.gnome.org/Apps/Web,,"GTK, libhandy",,
Liri Browser,https://github.com/lirios/browser,https://liri.io/apps/browser/,,GNU GPLv3,browser,"""Liri Browser is a cross-platform, Material Design Web browser, currently in  alpha  stage. """,https://liri.io/apps/browser/,,,https://liri.io/apps/browser/,,"QtQuick, fluid",,
Liri Text,https://github.com/lirios/text,https://liri.io/apps/text/,,GNU GPLv3,text editor,"""Liri Text is a cross-platform, Material Design text editor, currently in  alpha  stage. """,https://liri.io/apps/text/,,,https://liri.io/apps/text/,,"QtQuick, fluid",,
Liri Calculator,https://github.com/lirios/calculator,https://liri.io/apps/calculator/,,GNU GPLv3,calculator,"""Liri Calculator is a cross-platform, Material Design calculator, currently in  alpha  stage. """,https://liri.io/apps/calculator/,,,https://liri.io/apps/calculator/,,"QtQuick, fluid",,
Pure Maps,https://github.com/rinigus/pure-maps,,,GNU GPLv3,navigation,"""Maps and navigation""",https://github.com/rinigus/pure-maps,"""Pure Maps is an application for Linux and Sailfish OS to display vector and raster maps, places, routes, and provide navigation instructions with a flexible selection of data and service providers.""",https://github.com/rinigus/pure-maps,https://flathub.org/apps/details/io.github.rinigus.PureMaps,0,"QtQuick, Kirigami, Silica",,
Neverball,https://github.com/pseuudonym404/neverball-touch,,,GNU GPLv2,game,"""Tilt the floor to roll a ball through an obstacle course within the given time. If the ball falls or time expires, a ball is lost.""",https://github.com/pseuudonym404/neverball-touch,,,,,,,
TuxRacer,https://github.com/pseuudonym404/tuxracer-touch,,,GNU GPLv2,game,"""Ubuntu touch tux racer port """,https://github.com/pseuudonym404/tuxracer-touch,,,https://uappexplorer.com/app/tuxracer.lb,,,,
Minetest,https://github.com/minetest/minetest,https://www.minetest.net/,,"different (CC BY-SA 3.0, GNU GPLv2.1and others)",game,"""Minetest, an open source infinite-world block sandbox game engine with support for survival and crafting.""",https://github.com/minetest/minetest#compiling,,,,1,,,
Mycroft,https://github.com/AIIX/mycroft-kirigami-application,,,GNU GPLv3,voice assistant,"""Mycroft Kirigami Application for Plasma Mobile""",https://github.com/AIIX/mycroft-kirigami-application,,,,0,Kirigami,,
blabber,https://github.com/err4nt/blabber,,,GNU GPLv3,social networks,"""QML Kirigami based Mastodon client """,https://github.com/err4nt/blabber,,,,0,Kirigami,,
choqok-kirigami,https://github.com/geekodour/choqok-kirigami,,,??? (View License),social networks,"""Kirigami Implementation of KDE choqok """,https://github.com/geekodour/choqok-kirigami,,,,0,Kirigami,,
Superjumper,https://github.com/libgdx/libgdx-demo-superjumper,,,not specified,"demo, game","""Super Jumper is a very simple Doodle Jump clone.""",https://github.com/libgdx/libgdx-demo-superjumper,,,https://github.com/libgdx/libgdx-demo-superjumper,,libGDX,,
Caramelos,https://github.com/luarca84/Caramelos,,,MIT,game,"""Caramelos is an Android Game made with Libgdx """,https://github.com/luarca84/Caramelos,,,https://play.google.com/store/apps/details?id=com.dfzlv.gjjlt.caramelos,,,,
Poland can into Space,https://github.com/JSandomierz/pcis,,,!!! Not sure either it is a free software license (it is not allowed to generate revenue from the software): NPOSL-3.0,game,"""""Poland can into Space"" is a simple Android game based on LibGDX framework""",https://github.com/JSandomierz/pcis,,,https://github.com/JSandomierz/pcis,,,,
Kolorfill,https://anongit.kde.org/kolorfill.git,,https://pusling.com/blog/?p=505,MIT/X11,game,"""It is a simple flood filling game written using the amazing Kirigami framework.""",https://pusling.com/blog/?p=505,,,https://pusling.com/blog/?p=505,,,,
Liri Terminal,https://github.com/lirios/terminal,,,GPLv3,terminal,"""A Material Design terminal.""",https://github.com/lirios/terminal,,,https://liri.io/apps/,,,,
Liri Files,https://github.com/lirios/files,,,GPLv3,file manager,"""Files is a tool for managing files""",https://liri.io/apps/,,,https://liri.io/apps/,,,,
Lollypop,https://gitlab.gnome.org/World/lollypop,https://wiki.gnome.org/Apps/Lollypop,,,,"""Lollypop is a modern music player for GNOME""",https://wiki.gnome.org/Apps/Lollypop,,,https://wiki.gnome.org/Apps/Lollypop,,,,
Calligra Gemini,https://anongit.kde.org/calligra.git,,,GNU GPLv2,office suite,"""The Calligra project develops a set of applications for productivity and creative usage """,https://cgit.kde.org/calligra.git/,,,https://cdn.kde.org/screenshots/calligra/words-touch-mode-with-notes-panel.png https://www.pro-linux.de/news/1/21650/calligra-gemini-vorgestellt.html https://www.freeware-base.de/freewares-screenshots30600.html,2,QtQuick,,
H-Craft,https://bitbucket.org/mzeilfelder/trunk_hc1,http://www.irrgheist.com/games.htm,,"z-lib and others, graphics and fonts are not free licensed!",game,"""H-Craft Championship is a fun to play scifi-racer.""",http://www.irrgheist.com/games.htm,,,http://www.irrgheist.com/hcraftscreenshots.htm https://play.google.com/store/apps/details?id=com.irrgheist.hcraft_championship,,,,
OSM Scout Server,https://github.com/rinigus/osmscout-server,https://rinigus.github.io/osmscout-server/en/,,GNU GPLv3,maps server,"""OSM Scout server can be used as a drop-in replacement for online map services providing map tiles, search, and routing.""",https://github.com/rinigus/osmscout-server,"""OSM Scout Server can be used to add offline operation mode for navigation or any other application requiring map data access. Maps in vector and raster formats are supported as well as providing geocoding, routing, and map matching.""",https://github.com/rinigus/osmscout-server,https://openrepos.net/content/rinigus/osm-scout-server,,"QtQuick, Kirigami, Silica",,
ONVIFViewer,https://gitlab.com/caspermeijn/onvifviewer,,,GPL-3.0,,"""View and control network cameras using the ONVIF protocol""",https://flathub.org/apps/details/net.meijn.onvifviewer,,,https://flathub.org/apps/details/net.meijn.onvifviewer https://play.google.com/store/apps/details?id=net.meijn.onvifviewer,0,Kirigami,,
PixelWheels,https://github.com/agateau/pixelwheels,http://agateau.com/projects/pixelwheels/,,CC BY-SA 4.0 International,game,"""Pixel Wheels is a top-down racing game for PC (Linux, Mac, Windows) and Android.""",http://agateau.com/projects/pixelwheels/,"""Race for the first place on various tracks. Pick up bonuses to boost your position or slow down competitors!""",http://agateau.com/projects/pixelwheels/,http://agateau.com/projects/pixelwheels/,1,libGDX,,
Kodi,https://github.com/xbmc/xbmc,https://kodi.tv/,,"GNU GPLv2 or later, various others",media center,"""Kodi is an award-winning free and open source home theater/media center software and entertainment hub for digital media. With its beautiful interface and powerful skinning engine, it's available for Android, BSD, Linux, macOS, iOS and Windows.""",https://github.com/xbmc/xbmc,,,https://play.google.com/store/apps/details?id=org.xbmc.kodi,0,,,
Ring-KDE,https://anongit.kde.org/ring-kde.git,,https://elv13.wordpress.com/author/elv13/,GNU GPLv2,"chat, telephony","""The KDE client for the Ring communication framework (www.ring.cx)""",https://cgit.kde.org/ring-kde.git,,,https://elv13.wordpress.com/author/elv13/,2,"QtQuick, Kirigami",,Jami (formerly Ring)
Drawing,https://github.com/maoschanz/drawing,,,GNU GPLv3,drawing,"""This application is a simple image editor using Cairo and GdkPixbuf for basic drawing operations.""",https://github.com/maoschanz/drawing,,,https://github.com/maoschanz/drawing,,GTK,,
PasswordSafe,https://gitlab.gnome.org/World/PasswordSafe,,,GNU GPLv3,password manager,"""Password Safe is a password manager which makes use of the KeePass v.4 format. It integrates perfectly with the GNOME desktop and provides an easy and uncluttered interface for the management of password databases.""",https://gitlab.gnome.org/World/PasswordSafe,,,https://gitlab.gnome.org/World/PasswordSafe https://matrix.to/#/!BSqRHgvCtIsGittkBG:talk.puri.sm/$154759674326879cFWXa:matrix.org?via=talk.puri.sm&via=matrix.org&via=disroot.org https://tchncs.de/_matrix/media/v1/download/matrix.org/VPBskuylCBwANlJJZsiFOwUx,0,"libhandy, GTK",,
Authenticator,https://gitlab.gnome.org/World/Authenticator,,,GNU GPLv2,2FA code generator,"""Two-factor authentication code generator for GNOME. Created with love using Python and GTK+.""",https://gitlab.gnome.org/World/Authenticator/,,,https://gitlab.gnome.org/World/Authenticator/ https://matrix.to/#/!BSqRHgvCtIsGittkBG:talk.puri.sm/$1547610383565VYxvY:disroot.org?via=talk.puri.sm&via=matrix.org&via=disroot.org https://www.youtube.com/watch?v=troGmVpQCF0,0,"libhandy, GTK",,
QtWebBrowser,http://code.qt.io/cgit/qt-apps/qtwebbrowser.git/tree/,https://doc.qt.io/QtWebBrowser/,,GNU GPLv3,browser,"""Qt WebEngine based browser for embedded touch devices.""",http://code.qt.io/cgit/qt-apps/qtwebbrowser.git/tree/,,,https://doc.qt.io/QtWebBrowser/,0,QtQuick,,
Qt Virtual Keyboard,https://code.qt.io/qt/qtvirtualkeyboard.git,https://doc.qt.io/qt-5/qtvirtualkeyboard-index.html,,GNU GPLv3,virtual keyboard,"""The Qt Virtual Keyboard project provides an input framework and reference keyboard frontend for Qt 5 on Linux Desktop/X11, Windows Desktop, and Boot2Qt targets.""",https://doc.qt.io/qt-5/qtvirtualkeyboard-index.html,,,https://doc.qt.io/qt-5/qtvirtualkeyboard-basic-example.html,0,QtQuick,,
Telegram,https://github.com/telegramdesktop/tdesktop,https://desktop.telegram.org/,,GNU GPLv3,chat,"""Telegram Desktop messaging app""",https://github.com/telegramdesktop/tdesktop,,,https://desktop.telegram.org https://mastodon.technology/@kde/101557824824695088,0,QtQuick,,Telegram
Ironball,https://github.com/pracedru/ironball,https://www.pracedru.dk:8888/index.html,,GNU GPLv3,game,""" Mobile game inspired by the classic Speedball game for Amiga/C64 etc.",https://github.com/pracedru/ironball/,,,https://github.com/pracedru/ironball/,0,Web technologies,,
Daty,https://gitlab.gnome.org/World/Daty,,,GNU AGPLv3,,"""Daty is a free cross-platform advanced Wikidata editor adhering to GNOME Human Interface Guidelines, intended to enable better editing workflow and faster deployment of requested user features. Use Daty to search, select, read, batch edit items, script actions, share, visualize proposed changes and bots.""",https://gitlab.gnome.org/World/Daty,,,https://gitlab.gnome.org/World/Daty,0,libhandy,,Wikidata
Podcasts,https://gitlab.gnome.org/World/podcasts,https://wiki.gnome.org/Apps/Podcasts,,GNU GPLv3,podcast player,"""Podcast app for GNOME""",https://gitlab.gnome.org/World/podcasts,"""A Podcast application for GNOME. Listen to your favorite podcasts, right from your desktop.""",https://gitlab.gnome.org/World/podcasts,https://gitlab.gnome.org/World/podcasts,,libhandy,,
Contacts ,https://gitlab.gnome.org/GNOME/gnome-contacts,https://wiki.gnome.org/Apps/Contacts,,GNU GPLv2,contacts,"""A contacts manager for GNOME""",https://gitlab.gnome.org/GNOME/gnome-contacts,"""Contacts organizes your contacts information from all your online and offline sources, providing a centralized place for managing your contacts.""",https://gitlab.gnome.org/GNOME/gnome-contacts,,,libhandy,,
Games,https://gitlab.gnome.org/GNOME/gnome-games,https://wiki.gnome.org/Design/Playground/Games,,GNU GPLv3,game launcher,"""Simple game launcher for GNOME""",https://gitlab.gnome.org/GNOME/gnome-games,"""Games is a game manager application for GNOME.""",https://gitlab.gnome.org/GNOME/gnome-games,,,libhandy,,
Okular,https://anongit.kde.org/okular.git,https://userbase.kde.org/Okular,,GNU GPLv2,document viewer,"""Okular is a universal document viewer developed by KDE.""",https://userbase.kde.org/Okular,,,https://userbase.kde.org/Okular,0,Kirigami,,
ScrumPoker,https://github.com/dcordero/ScrumPoker,,,GNU GPLv3,,"""ScrumPoker is a simple and useful scrum planning poker App. It helps you by making your estimation meetings more effective.""",https://github.com/dcordero/ScrumPoker,,,https://github.com/dcordero/ScrumPoker,0,libhandy,,
Organizer,https://gitlab.gnome.org/aviwad/organizer,,,GNU GPLv3,file manager,"""Organizer is a GTK Python app to organize your files into neat categories! It does so by the filetype.""",https://gitlab.gnome.org/aviwad/organizer,,,https://gitlab.gnome.org/aviwad/organizer,0,libhandy,,
QHumble,https://github.com/eyecreate/QHumble,,,GNU GPLv3,,Qhumble allows retrieving any content purchased from Humble Bundle that is DRM-Free.,no quotation,,,https://www.eyecreate.org/images/qhumble-demo-fs8.png,,QtQuick,,humblebundle.com
Brave,https://github.com/brave/brave-browser,https://brave.com/,https://brave.com/about/,MPL 2.0 and others,browser,"Brave is a browser that blocks ads and trackers by default. It supports swiping to change tabs, pinch zoom and other gestures. It also has built in Tor support.",no quotation,,,,2,,chromium,
Fragments,https://gitlab.gnome.org/World/Fragments,,https://puri.sm/posts/fragments-app-for-the-librem-5/,GNU GPLv3,bittorrent client,"""Fragments is an easy to use BitTorrent client which follows the GNOME HIG and includes well thought-out features.""",https://gitlab.gnome.org/World/Fragments,,,https://puri.sm/posts/fragments-app-for-the-librem-5/,0,libhandy,,BitTorrent
Flappy-gnome,https://gitlab.gnome.org/albfan/flappy-gnome-tutorial,,,not specified,game,"""Flappy GNOME is a side-scrolling game development tutorial using Vala and GTK+.""",https://gitlab.gnome.org/albfan/flappy-gnome-tutorial,,,https://gitlab.gnome.org/albfan/flappy-gnome-tutorial,,GTK,,
DIGITAiL Controller,https://github.com/MasterTailer/DIGITAiL,,,GNU GPLv3,,"""App to control our new breed of animatroinic tails!""",https://github.com/MasterTailer/DIGITAiL,,,https://play.google.com/store/apps/details?id=org.thetailcompany.digitail,0,Kirigami,,
Dukto,https://sourceforge.net/p/dukto/code/HEAD/tree/,http://www.msec.it/blog/?page_id=11,,GNU GPLv2,file transfer,"""A simple multi-platform file transfer application especially designed for LAN users and which supports sending text, files or folders. It supports Windows, OS X, Linux, iOS, Android and more.""",https://play.google.com/store/apps/details?id=it.msec.dukto,,,https://play.google.com/store/apps/details?id=it.msec.dukto,0,QtQuick,,
Two-Factor-Keychain,https://git.eyecreate.org/eyecreate/Two-Factor-Keychain,,,GNU GPLv3,OTP generator,"""Python app intended for mobile/desktop linux computers for managing OTP codes.""",https://git.eyecreate.org/eyecreate/Two-Factor-Keychain,,,https://www.eyecreate.org/images/two-factor-demo-fs8.png,0,QtQuick,,
QField,https://github.com/opengisch/QField,https://www.qfield.org/,,GNU GPLv2,GIS,"""A simplified touch optimized interface for QGIS. Perfect for field work on portable touch devices.""",https://github.com/opengisch/QField,,,https://play.google.com/store/apps/details?id=ch.opengis.qfield,0,QtQuick,,
Save the bunny!,https://github.com/pabloalba/savethebunny,,,Apache 2.0,game,"""«Save the bunny!» is a turn-based puzzle game. """,https://play.google.com/store/apps/details?id=es.seastorm.merlin,,,https://play.google.com/store/apps/details?id=es.seastorm.merlin,0,libGDX,,
Lucy,https://github.com/pabloalba/lucy/,,,Apache 2.0,game,"""Lucy's family has been abducted by Aliens! Help Lucy to reach the four UFOS and rescue her family.""",https://play.google.com/store/apps/details?id=es.seastorm.lucy,,,https://play.google.com/store/apps/details?id=es.seastorm.lucy,0,libGDX,,
Terrarium,https://github.com/penk/terrarium-app,http://www.terrariumapp.com/,,MIT,UI prototyping,"""Terrarium is a cross platform QML Playground: the view renders lively as you type in the editor, makes prototyping and experimenting with QtQuick a lot more fun!""",https://github.com/penk/terrarium-app,,,https://play.google.com/store/apps/details?id=com.terrariumapp.penk.Terrarium,0,QtQuick,,
Passgen,https://github.com/zettdaymond/passgen,,,MIT and others,password generator,"""Passgen - unique password generator written using Qt Quick Controls 2. Generates password based on (web) service name and master-password. Any inputted data or generated password doesn't be stored.""",https://github.com/zettdaymond/passgen,,,https://play.google.com/store/apps/details?id=org.zettday.passgen,0,QtQuick,,
Quicky in search of Mickey,https://github.com/cyberbach/Adventure,,,not specified,game,"""In a beautiful magical forest magic live animals. Among them are our friends Quicky and Mickey. But once Mickey got lost. What happened to him? Quicky will have to find his brother and unravel the mysteries of the magic forest.""",https://play.google.com/store/apps/details?id=net.overmy.adventure,,,https://play.google.com/store/apps/details?id=net.overmy.adventure,0,libGDX,,
PlasmaTube,https://invent.kde.org/lnj/plasmatube/,,,GPL-3+,online video player,"""Kirigami YouTube video player based on libmpv and youtube-dl""",https://invent.kde.org/lnj/plasmatube/,,,https://share.kaidan.im/lnj/B2ywsz5K2DtXLspZsuQz/Screenshot_20190320_221358.png,0,Kirigami,"libmpv, youtube-dl","invidious API, YouTube"
OTP client,https://invent.kde.org/bshah/otpclient,,,GNU GPLv3,OTP generator,"""OTP client for Plasma Mobile and Desktop.""",https://invent.kde.org/bshah/otpclient,,,,0,Kirigami,OATH Toolkit,
gtkbart,https://github.com/curioussavage/gtkbart,,,GNU GPLv3,public transport,Public transportation client for the Bay Area Rapid Transit system,https://matrix.to/#/!BSqRHgvCtIsGittkBG:talk.puri.sm/$1551464398853539kMJNP:matrix.org?via=talk.puri.sm&via=matrix.org&via=disroot.org,,,https://matrix.to/#/!BSqRHgvCtIsGittkBG:talk.puri.sm/$1552484360812146NsCNI:matrix.org?via=talk.puri.sm&via=matrix.org&via=disroot.orghttps://matrix.to/#/!BSqRHgvCtIsGittkBG:talk.puri.sm/$1552484367812176nGGFk:matrix.org?via=talk.puri.sm&via=matrix.org&via=disroot.org ,0,libhandy,,Bay Area Rapid Transit API
FluffyChat,https://gitlab.com/ChristianPauly/fluffychat,https://fluffy.chat ,https://ubports.com/de_DE/blog/ubports-blog-1/post/fluffychat-188 https://snapcraft.io/fluffychat ,GNU GPLv3,chat,"FluffyChat is a chat client for Matrix, originally created for Ubuntu Touch",no quotation,,,https://open-store.io/app/fluffychat.christianpauly https://www.invidio.us/watch?v=ZKMIdr6bqg4,0,QtQuick,,Matrix
plasma-phonebook,https://invent.kde.org/kde/plasma-phonebook,,https://phabricator.kde.org/T6937,not specified,contacts,"""Address book application for Plasma Mobile.""",https://invent.kde.org/kde/plasma-phonebook/,"""Contacts application which allows adding, modifying and removing contacts.""",https://invent.kde.org/kde/plasma-phonebook,,0,Kirigami,"kpeople, kpeoplevcard, Kcontacts",
Girens,https://gitlab.gnome.org/tijder/girens,,,GNU GPLv3,media,"""Girens is a Plex GTK client for playing movies, TV shows and music from your Plex library.""",https://gitlab.gnome.org/tijder/girens,,,https://flathub.org/apps/details/nl.g4d.Girens,0,libhandy,,Plex
calculator,https://github.com/antoniprzybylik/calculator https://invent.kde.org/antonip/calculator,,https://phabricator.kde.org/T8900,not specified,calculator,"""plasma mobile calculator""",https://invent.kde.org/antonip/calculator,,,,0,Kirigami,,
plasma-phonebook,https://invent.kde.org/jbbgameich/plasma-phonebook,,https://phabricator.kde.org/T6937,not specified,contacts,"""Phone Book for Plasma Mobile""",https://invent.kde.org/jbbgameich/plasma-phonebook,"""Contacts application which allows adding, modifying and removing contacts.""",https://invent.kde.org/jbbgameich/plasma-phonebook,,0,Kirigami,"kpeople, kpeoplevcard, Kcontacts",
qrca,https://invent.kde.org/jbbgameich/qrca,,https://phabricator.kde.org/T8906,not specified,qr code,"""QR-Code scanner for Plasma Mobile""",https://invent.kde.org/jbbgameich/qrca,,,,0,Kirigami,"gstreamer, zxing-cpp",
SpaceBar,https://anongit.kde.org/spacebar.git,,https://phabricator.kde.org/project/profile/66/ https://phabricator.kde.org/T6936,GPL-2+,"SMS, chat","""Telepathy client for Plasma Mobile, that is primarily useful for sending and receiving SMS.""",https://cgit.kde.org/spacebar.git/tree/README.md,,,,0,Kirigami,ofono,SMS
Dialer,https://phabricator.kde.org/source/plasma-phone-components/browse/master/dialer/,,https://phabricator.kde.org/T6935,GNU GPLv2,telephony,Simple dialer application for plasma mobile,no quotation,,,,0,QtQuick,ofono,
Epoka,https://github.com/Appadeia/epoka,,,GNU GPLv3,clock,"Simple clock app in development, supporting stopwatch and timer until now",no quotation,,,https://t.me/mauiproject/1508,0,"MauiKit, Kirigami",,
KBibTeX,anongit.kde.org/kbibtex.git,,https://t-fischer.dreamwidth.org/9049.html https://cgit.kde.org/kbibtex.git/commit/?h=feature/kirigami&id=fd6dc23fab199e769da5e12df5ef99a4d8c9268f,GNU GPLv2,bibliography editor,"""KBibTeX is a bibliography editor (BibTeX and somewhat BibLaTex) used in conjunction with LaTeX and friends""",https://t-fischer.dreamwidth.org/9049.html,"""This commit is the first implementation of a very basic KBibTeX
implementation in Kirigami2. It is modelled after the SailfishOS
implementation, but far from being on par feature-wise.
There are deficits design-wise which require more expertise in QML and
Kirigami in order to be fixed.""",https://cgit.kde.org/kbibtex.git/commit/?h=feature/kirigami&id=fd6dc23fab199e769da5e12df5ef99a4d8c9268f,,0,Kirigami,,
Kirogi,https://invent.kde.org/kde/kirogi,https://kirogi.org/,https://blogs.kde.org/2019/09/08/introducing-kirogi-ground-control-application-drones http://mirror.kumi.systems/kde/files/akademy/2019/102-Taking_KDE_to_the_skies_Making_the_drone_ground_control_Kirogi.mp4 https://invidio.us/channel/shoblubb https://mastodon.technology/tags/kirogi,GNU GPLv2,drone control,"""Kirogi is a ground control application for drones. Take to the skies, open source-style.""",https://invent.kde.org/kde/kirogi,,,https://kirogi.org/ https://mastodon.technology/tags/kirogi,0,Kirigami,,
QiFlora,https://git.eyecreate.org/eyecreate/qiflora,,,GNU GPLv3,,,,,,,,,,
,,,,,,,,,,,,,,
,,,,,,,,,,,,,,
,,,,,,,,,,,,,,
,,,,,smart plant monitor,Mobile friendly application to monitor Mi Flora devices.,,,,,,,,
,,,,,,,,,,,,,,
,,,,,,,,,,https://git.eyecreate.org/eyecreate/qiflora/raw/master/packaging/main_window.png,0,Kirigami,,
